<?xml version="1.0" encoding="UTF-8"?>
<svg width="470px" height="424px" viewBox="0 0 470 424" version="1.1" xmlns="http://www.w3.org/2000/svg" xmlns:xlink="http://www.w3.org/1999/xlink">
    <!-- Generator: Sketch 43.2 (39069) - http://www.bohemiancoding.com/sketch -->
    <title>bank-fill-line</title>
    <desc>Created with Sketch.</desc>
    <defs></defs>
    <g id="Page-1-Annotations" stroke="none" stroke-width="1" fill="none" fill-rule="evenodd">
        <text id="BANK-FILL-RATE" font-family="FreightSansCmpPro-Black, FreightSansCmpPro" font-size="14" font-style="condensed" font-weight="700" line-spacing="30" fill="#B1B5BC">
            <tspan x="366" y="8">BANK FILL RATE</tspan>
        </text>
        <polyline id="Graph-Line" stroke="#D9DBDF" stroke-width="2" points="1 422.5 53.5585938 379.349151 89.3242188 394.55981 158.367188 366.442397 215.164062 323.450438 299.292969 316.880948 361.363281 179.62446 412.371094 71.0537213 458.753906 14"></polyline>
        <circle id="Oval" fill="#EE2894" cx="459" cy="11" r="11"></circle>
    </g>
</svg>